{
    "page": 3,
    "perPage": 6,
    "total": 12,
    "totalPages": 2,
    "data": [
        {
            "id": 7,
            "email": "michael.lawson@reqres.in",
            "firstName": "Michael",
            "lastName": "Lawson",
            "avatar": "/assets/images/7-image.jpg"
        },
        {
            "id": 8,
            "email": "lindsay.ferguson@reqres.in",
            "firstName": "Lindsay",
            "lastName": "Ferguson",
            "avatar": "/assets/images/8-image.jpg"
        },
        {
            "id": 9,
            "email": "tobias.funke@reqres.in",
            "firstName": "Tobias",
            "lastName": "Funke",
            "avatar": "/assets/images/9-image.jpg"
        },
        {
            "id": 10,
            "email": "byron.fields@reqres.in",
            "firstName": "Byron",
            "lastName": "Fields",
            "avatar": "/assets/images/10-image.jpg"
        },
        {
            "id": 11,
            "email": "george.edwards@reqres.in",
            "firstName": "George",
            "lastName": "Edwards",
            "avatar": "/assets/images/11-image.jpg"
        },
        {
            "id": 12,
            "email": "rachel.howell@reqres.in",
            "firstName": "Rachel",
            "lastName": "Howell",
            "avatar": "/assets/images/12-image.jpg"
        }
    ],
    "support": {
        "url": "https://reqres.in/#support-heading",
        "text": "To keep ReqRes free, contributions towards server costs are appreciated!"
    }
}